{
  "id": "1a00e57f.e5ff1b",
  "type": "subflow",
  "name": "Send to all devices",
  "info": "",
  "in": [
    {
      "x": 248.5,
      "y": 156,
      "wires": [
        {
          "id": "8e264ac2.71d9b8"
        }
      ]
    }
  ],
  "out": [
    {
      "x": 581.5,
      "y": 156,
      "wires": [
        {
          "id": "8e264ac2.71d9b8",
          "port": 0
        }
      ]
    }
  ],
  "flow": [
    {
      "id": "8e264ac2.71d9b8",
      "type": "function",
      "z": "1a00e57f.e5ff1b",
      "name": "Send to all devices",
      "func": "var msgs = [];\n\nfor (i = 0; i < context.global.devices.length; i++) {\n   node.send({\n       topic : context.global.devices[i],\n       payload : 'msg here'\n   });\n}\n\nreturn null;",
      "outputs": 1,
      "noerr": 0,
      "x": 415,
      "y": 156,
      "wires": [
        []
      ]
    }
  ]
}