{
  "type": "tab",
  "id": "980735e4.67f8c8",
  "label": "Demo Event Handling",
  "flow": [
    {
      "id": "56892d57.a976d4",
      "type": "redconnect-mobile-server",
      "z": "980735e4.67f8c8",
      "host": "localhost",
      "port": "1883",
      "serverKey": "5453rfvb678745ty3g872gf42gf",
      "appKey": "test"
    },
    {
      "id": "efa072d6.105f9",
      "type": "redconnect-mobile-device-event",
      "z": "980735e4.67f8c8",
      "name": "",
      "server": "56892d57.a976d4",
      "event": "",
      "x": 111.00003051757812,
      "y": 369.857129573822,
      "wires": [
        [
          "dc71b673.238e48"
        ]
      ]
    },
    {
      "id": "df0bea3d.20f418",
      "type": "http in",
      "z": "980735e4.67f8c8",
      "name": "",
      "url": "/log",
      "method": "get",
      "swaggerDoc": "",
      "x": 112.00003051757812,
      "y": 312.857129573822,
      "wires": [
        [
          "2ef34696.d10cba"
        ]
      ]
    },
    {
      "id": "1aa6a3cc.e5595c",
      "type": "http response",
      "z": "980735e4.67f8c8",
      "name": "",
      "x": 606.0000305175781,
      "y": 312.857129573822,
      "wires": []
    },
    {
      "id": "14b172ce.eb4e8d",
      "type": "websocket out",
      "z": "980735e4.67f8c8",
      "name": "Update Log",
      "server": "d4b6ffe2.2b49",
      "client": "",
      "x": 758.0000305175781,
      "y": 369.857129573822,
      "wires": []
    },
    {
      "id": "516352e4.ae9cac",
      "type": "subflow:494871ce.b6b79",
      "z": "980735e4.67f8c8",
      "name": "",
      "x": 260.0000305175781,
      "y": 312.857129573822,
      "wires": [
        [
          "f22d549c.0dd2a8"
        ]
      ]
    },
    {
      "id": "103b8047.efc48",
      "type": "function",
      "z": "980735e4.67f8c8",
      "name": "Log Event Name",
      "func": "var ev = new Date() + ': ' + msg.event;\n\nif (!context.global.events) {\n    context.global.events = [];\n}\n\ncontext.global.events.push(ev);\n\nmsg.payload = {\n    event: 'log',\n    details : {\n    events : context.global.events,\n    connections : context.global.devices \n        \n    }\n};\n\nreturn msg;",
      "outputs": 1,
      "noerr": 0,
      "x": 546.0000305175781,
      "y": 369.857129573822,
      "wires": [
        [
          "f0c04e17.0f3fb"
        ]
      ]
    },
    {
      "id": "31bebbe1.ce4144",
      "type": "redconnect-mobile-send-device-action",
      "z": "980735e4.67f8c8",
      "name": "",
      "server": "56892d57.a976d4",
      "event": "Hello",
      "x": 589,
      "y": 601.0000038146973,
      "wires": []
    },
    {
      "id": "581be7a5.a7e418",
      "type": "function",
      "z": "980735e4.67f8c8",
      "name": "Add device connect to list",
      "func": "if (!context.global.devices) {\n    context.global.devices = [];\n}\n\nvar devices = context.global.devices;\n\nif (msg.profile.connected === true) {\n    devices.push(msg.profile.connectionId);\n    node.warn(msg.profile.connectionId + ' connected');\n    \n} else {\n    var i = devices.indexOf(msg.profile.connectionId)\n    if (i !== -1) {\n        devices.splice(i, 1);\n        node.warn(msg.profile.connectionId + ' disconnected');\n    }\n}\n\n\nreturn msg;",
      "outputs": 1,
      "noerr": 0,
      "x": 313.0000305175781,
      "y": 369.857129573822,
      "wires": [
        [
          "e0a67f93.1f598",
          "598ad220.a6752c"
        ]
      ]
    },
    {
      "id": "4b493ca8.b4b6c4",
      "type": "subflow:1a00e57f.e5ff1b",
      "z": "980735e4.67f8c8",
      "name": "",
      "x": 356,
      "y": 600.0000038146973,
      "wires": [
        [
          "f83e2b1c.07c1d8"
        ]
      ]
    },
    {
      "id": "679be394.98641c",
      "type": "inject",
      "z": "980735e4.67f8c8",
      "name": "",
      "topic": "",
      "payload": "",
      "payloadType": "date",
      "repeat": "",
      "crontab": "",
      "once": false,
      "x": 115,
      "y": 600.0000038146973,
      "wires": [
        [
          "e2d99d7c.1d266"
        ]
      ]
    },
    {
      "id": "fb50b9eb.04af48",
      "type": "http in",
      "z": "980735e4.67f8c8",
      "name": "",
      "url": "/sendEvent",
      "method": "get",
      "swaggerDoc": "",
      "x": 132,
      "y": 600.0000038146973,
      "wires": [
        [
          "e2d99d7c.1d266",
          "a225bec4.5dda4"
        ]
      ]
    },
    {
      "id": "f8e0f1c3.071f1",
      "type": "inject",
      "z": "980735e4.67f8c8",
      "name": "",
      "topic": "",
      "payload": "",
      "payloadType": "date",
      "repeat": "",
      "crontab": "",
      "once": false,
      "x": 119,
      "y": 764.0000038146973,
      "wires": [
        [
          "6d4e25f1.92b1dc"
        ]
      ]
    },
    {
      "id": "756341db.8a9cc",
      "type": "http in",
      "z": "980735e4.67f8c8",
      "name": "",
      "url": "/sendScreen",
      "method": "get",
      "swaggerDoc": "",
      "x": 140,
      "y": 764.0000038146973,
      "wires": [
        [
          "8bc1a1b4.743e6",
          "6d4e25f1.92b1dc"
        ]
      ]
    },
    {
      "id": "c702bb34.38fd48",
      "type": "subflow:1a00e57f.e5ff1b",
      "z": "980735e4.67f8c8",
      "name": "",
      "x": 386,
      "y": 764.0000038146973,
      "wires": [
        [
          "78e17e5d.871e8"
        ]
      ]
    },
    {
      "id": "2f272d7a.d0d8d2",
      "type": "redconnect-mobile-device-show-onscreen",
      "z": "980735e4.67f8c8",
      "name": "",
      "server": "56892d57.a976d4",
      "url": "https://ibm-demo-mj.redconnectapp.io/demoScreen",
      "x": 615,
      "y": 764.0000038146973,
      "wires": []
    },
    {
      "id": "2382b0a4.dc7d5",
      "type": "template",
      "z": "980735e4.67f8c8",
      "name": "Demo Screen HTML",
      "field": "payload",
      "format": "handlebars",
      "template": "<html>\n<body>\nThis UI has been served remotely via RedConnect\n<p>\n<a href='app://close'>Close</a>    \n</p>\n</body>\n</html>",
      "x": 330,
      "y": 824.0000038146973,
      "wires": [
        [
          "fa1e8491.05e178"
        ]
      ]
    },
    {
      "id": "dad5cceb.252a3",
      "type": "http response",
      "z": "980735e4.67f8c8",
      "name": "",
      "x": 348,
      "y": 717.0000038146973,
      "wires": []
    },
    {
      "id": "4f4aa007.b0b56",
      "type": "http in",
      "z": "980735e4.67f8c8",
      "name": "",
      "url": "/demoScreen",
      "method": "get",
      "swaggerDoc": "",
      "x": 139,
      "y": 824.0000038146973,
      "wires": [
        [
          "94c0398c.6b3fc8"
        ]
      ]
    },
    {
      "id": "8a000677.75fff8",
      "type": "http response",
      "z": "980735e4.67f8c8",
      "name": "",
      "x": 509,
      "y": 824.0000038146973,
      "wires": []
    },
    {
      "id": "61d0f115.9e2f1",
      "type": "template",
      "z": "980735e4.67f8c8",
      "name": "Log Page HTML",
      "field": "payload",
      "format": "handlebars",
      "template": "<!DOCTYPE html>\n<html lang=\"en\">\n<meta name=\"apple-mobile-web-app-capable\" content=\"yes\">\n<meta name=\"viewport\" content=\"initial-scale = 1.0, user-scalable = no\">\n<meta name=\"apple-mobile-web-app-status-bar-style\" content=\"black-translucent\">\n\n\n<head>\n\t<meta charset=\"UTF-8\">\n\t<title>Redconnect Mobile Log</title>\n\n</head>\n\n\n<body>\n    <button onclick='sendHello()'>Send 'Hello' Event</button>\n    <button onclick='sendScreen()'>Show Remote UI</button>\n    <p></p>\n        Current Connections:\n    <div class=\"connections\" id=\"connections\">\n        <p>{{#context.global.devices}}\n            <li>{{.}}</li>\n        {{/context.global.devices}}\n        </p>\n    </div>\n    <p></p>\n        Redconnect Mobile Log:\n    <div class=\"log\" id=\"log\">\n        <p>{{#context.global.events}}\n            <li>{{.}}</li>\n        {{/context.global.events}}\n        </p>\n    </div>\n\n</body>\n\n<script src=\"https://code.jquery.com/jquery-1.12.0.min.js\" type=\"text/javascript\"></script>\n\n<script>\n    var actions = {};\n    \n    actions.log = function(content) {\n        var log = document.getElementById(\"log\");\n        log.innerHTML = \"<p>\";\n        \n        for (var i=0; i < content.events.length; i++) {\n            \n            log.innerHTML += \"<li>\" + content.events[i] + \"</li>\" ;\n        };\n            \n        log.innerHTML += \"</p>\";\n        \n        var connections = document.getElementById(\"connections\");\n        \n        connections.innerHTML = \"<p>\";\n        \n        for (var i=0; i < content.connections.length; i++) {\n            \n            connections.innerHTML += \"<li>\" + content.connections[i] + \"</li>\" ;\n        };\n            \n        connections.innerHTML += \"</p>\";\n    }\n    \n    sendHello = function() {\n         $.get('/sendEvent');\n    }\n    \n    sendScreen = function() {\n         $.get('/sendScreen');\n    }\n    \n</script>\n\n<script>\n    \n    var initSocket = function() {\n        \n        document.socket = new WebSocket('{{{config.websocket}}}');\n            \n        document.socket.onclose = function (event) { \n            \n            console.log('socket closed, reopening...')\n            initSocket();\n        };\n    \n        document.socket.onmessage = function (event) {\n        \n            var msg = JSON.parse(event.data);\n            \n            //Call the requested JS action\n            if (actions && actions[msg.event]) {\n                \n                actions[msg.event](msg.details);\n                \n            } else {\n                \n                console.log('unknown event: ' + event.data);\n                \n            }\n        }\n    \n        \n    }\n    \n    initSocket();\n    \n</script>\n\n</html>",
      "x": 442.7500305175781,
      "y": 312.857129573822,
      "wires": [
        [
          "dbbc8c51.24437"
        ]
      ]
    },
    {
      "id": "d57b542.f2a84a8",
      "type": "http response",
      "z": "980735e4.67f8c8",
      "name": "",
      "x": 319,
      "y": 562.0000038146973,
      "wires": []
    },
    {
      "id": "a04b0010.5fb5",
      "type": "comment",
      "z": "980735e4.67f8c8",
      "name": "Sending an event to all registered devices",
      "info": "",
      "x": 185,
      "y": 521.0000038146973,
      "wires": []
    },
    {
      "id": "65e56cd0.9a1a94",
      "type": "comment",
      "z": "980735e4.67f8c8",
      "name": "Remote User Interface",
      "info": "",
      "x": 130,
      "y": 712.0000038146973,
      "wires": []
    },
    {
      "id": "927fa159.6d806",
      "type": "comment",
      "z": "980735e4.67f8c8",
      "name": "Simple Logging Page",
      "info": "",
      "x": 136.50003051757812,
      "y": 268.857129573822,
      "wires": []
    },
    {
      "id": "7679e1b6.89862",
      "type": "comment",
      "z": "980735e4.67f8c8",
      "name": "Resets",
      "info": "",
      "x": 119.99999618530273,
      "y": 48,
      "wires": []
    },
    {
      "id": "352e38f7.cad1c8",
      "type": "inject",
      "z": "980735e4.67f8c8",
      "name": "Reset",
      "topic": "",
      "payload": "",
      "payloadType": "none",
      "repeat": "",
      "crontab": "",
      "once": false,
      "x": 126.99999618530273,
      "y": 91,
      "wires": [
        [
          "8bef1c2.f7410e",
          "ededcfce.12123"
        ]
      ]
    },
    {
      "id": "8e5ccca2.71a33",
      "type": "function",
      "z": "980735e4.67f8c8",
      "name": "Clear down connected devices",
      "func": "context.global.devices = [];\n\nreturn;",
      "outputs": "0",
      "noerr": 0,
      "x": 376.99999618530273,
      "y": 91,
      "wires": []
    },
    {
      "id": "62292e94.9dd6d",
      "type": "function",
      "z": "980735e4.67f8c8",
      "name": "Clear down events",
      "func": "context.global.events = [];\n\nreturn;",
      "outputs": "0",
      "noerr": 0,
      "x": 339.25000381469727,
      "y": 151.50000190734863,
      "wires": []
    },
    {
      "id": "8ac8ce23.75373",
      "type": "redconnect-mobile-device-event",
      "z": "980735e4.67f8c8",
      "name": "",
      "server": "56892d57.a976d4",
      "event": "",
      "x": 111.00003051757812,
      "y": 369.857129573822,
      "wires": [
        [
          "dc71b673.238e48"
        ]
      ]
    },
    {
      "id": "6cf156a1.930ea8",
      "type": "http in",
      "z": "980735e4.67f8c8",
      "name": "",
      "url": "/log",
      "method": "get",
      "swaggerDoc": "",
      "x": 112.00003051757812,
      "y": 312.857129573822,
      "wires": [
        [
          "2ef34696.d10cba"
        ]
      ]
    },
    {
      "id": "dbbc8c51.24437",
      "type": "http response",
      "z": "980735e4.67f8c8",
      "name": "",
      "x": 606.0000305175781,
      "y": 312.857129573822,
      "wires": []
    },
    {
      "id": "f0c04e17.0f3fb",
      "type": "websocket out",
      "z": "980735e4.67f8c8",
      "name": "Update Log",
      "server": "d4b6ffe2.2b49",
      "client": "",
      "x": 758.0000305175781,
      "y": 369.857129573822,
      "wires": []
    },
    {
      "id": "2ef34696.d10cba",
      "type": "subflow:494871ce.b6b79",
      "z": "980735e4.67f8c8",
      "name": "",
      "x": 260.0000305175781,
      "y": 312.857129573822,
      "wires": [
        [
          "f22d549c.0dd2a8"
        ]
      ]
    },
    {
      "id": "e0a67f93.1f598",
      "type": "function",
      "z": "980735e4.67f8c8",
      "name": "Log Event Name",
      "func": "var ev = new Date() + ': ' + msg.event;\n\nif (!context.global.events) {\n    context.global.events = [];\n}\n\ncontext.global.events.push(ev);\n\nmsg.payload = {\n    event: 'log',\n    details : {\n    events : context.global.events,\n    connections : context.global.devices \n        \n    }\n};\n\nreturn msg;",
      "outputs": 1,
      "noerr": 0,
      "x": 546.0000305175781,
      "y": 369.857129573822,
      "wires": [
        [
          "f0c04e17.0f3fb"
        ]
      ]
    },
    {
      "id": "f83e2b1c.07c1d8",
      "type": "redconnect-mobile-send-device-action",
      "z": "980735e4.67f8c8",
      "name": "",
      "server": "56892d57.a976d4",
      "event": "Hello",
      "x": 589,
      "y": 601.0000038146973,
      "wires": []
    },
    {
      "id": "dc71b673.238e48",
      "type": "function",
      "z": "980735e4.67f8c8",
      "name": "Add device connect to list",
      "func": "if (!context.global.devices) {\n    context.global.devices = [];\n}\n\nvar devices = context.global.devices;\n\nif (msg.profile.connected === true && (devices.indexOf(msg.profile.connectionId) === -1)) {\n    devices.push(msg.profile.connectionId);\n    node.warn(msg.profile.connectionId + ' connected');\n    \n} else {\n    var i = devices.indexOf(msg.profile.connectionId)\n    if (i !== -1) {\n        devices.splice(i, 1);\n        node.warn(msg.profile.connectionId + ' disconnected');\n    }\n}\n\n\nreturn msg;",
      "outputs": 1,
      "noerr": 0,
      "x": 313.0000305175781,
      "y": 369.857129573822,
      "wires": [
        [
          "e0a67f93.1f598",
          "598ad220.a6752c"
        ]
      ]
    },
    {
      "id": "e2d99d7c.1d266",
      "type": "subflow:1a00e57f.e5ff1b",
      "z": "980735e4.67f8c8",
      "name": "",
      "x": 356,
      "y": 600.0000038146973,
      "wires": [
        [
          "f83e2b1c.07c1d8"
        ]
      ]
    },
    {
      "id": "be3bec7.f41c41",
      "type": "inject",
      "z": "980735e4.67f8c8",
      "name": "",
      "topic": "",
      "payload": "",
      "payloadType": "date",
      "repeat": "",
      "crontab": "",
      "once": false,
      "x": 115,
      "y": 600.0000038146973,
      "wires": [
        [
          "e2d99d7c.1d266"
        ]
      ]
    },
    {
      "id": "6bf38875.940c78",
      "type": "http in",
      "z": "980735e4.67f8c8",
      "name": "",
      "url": "/sendEvent",
      "method": "get",
      "swaggerDoc": "",
      "x": 132,
      "y": 600.0000038146973,
      "wires": [
        [
          "e2d99d7c.1d266",
          "a225bec4.5dda4"
        ]
      ]
    },
    {
      "id": "d7af339b.2850d",
      "type": "inject",
      "z": "980735e4.67f8c8",
      "name": "",
      "topic": "",
      "payload": "",
      "payloadType": "date",
      "repeat": "",
      "crontab": "",
      "once": false,
      "x": 119,
      "y": 764.0000038146973,
      "wires": [
        [
          "6d4e25f1.92b1dc"
        ]
      ]
    },
    {
      "id": "a4e4a78d.5b1b58",
      "type": "http in",
      "z": "980735e4.67f8c8",
      "name": "",
      "url": "/sendScreen",
      "method": "get",
      "swaggerDoc": "",
      "x": 140,
      "y": 764.0000038146973,
      "wires": [
        [
          "8bc1a1b4.743e6",
          "6d4e25f1.92b1dc"
        ]
      ]
    },
    {
      "id": "6d4e25f1.92b1dc",
      "type": "subflow:1a00e57f.e5ff1b",
      "z": "980735e4.67f8c8",
      "name": "",
      "x": 386,
      "y": 764.0000038146973,
      "wires": [
        [
          "78e17e5d.871e8"
        ]
      ]
    },
    {
      "id": "78e17e5d.871e8",
      "type": "redconnect-mobile-device-show-onscreen",
      "z": "980735e4.67f8c8",
      "name": "",
      "server": "56892d57.a976d4",
      "url": "https://ibm-demo-mj.redconnectapp.io/demoScreen",
      "x": 615,
      "y": 764.0000038146973,
      "wires": []
    },
    {
      "id": "94c0398c.6b3fc8",
      "type": "template",
      "z": "980735e4.67f8c8",
      "name": "Demo Screen HTML",
      "field": "payload",
      "format": "handlebars",
      "template": "<html>\n<body>\nThis UI has been served remotely via RedConnect\n<p>\n<a href='app://close'>Close</a>    \n</p>\n</body>\n</html>",
      "x": 330,
      "y": 824.0000038146973,
      "wires": [
        [
          "fa1e8491.05e178"
        ]
      ]
    },
    {
      "id": "8bc1a1b4.743e6",
      "type": "http response",
      "z": "980735e4.67f8c8",
      "name": "",
      "x": 348,
      "y": 717.0000038146973,
      "wires": []
    },
    {
      "id": "fbdab34a.04255",
      "type": "http in",
      "z": "980735e4.67f8c8",
      "name": "",
      "url": "/demoScreen",
      "method": "get",
      "swaggerDoc": "",
      "x": 139,
      "y": 824.0000038146973,
      "wires": [
        [
          "94c0398c.6b3fc8"
        ]
      ]
    },
    {
      "id": "fa1e8491.05e178",
      "type": "http response",
      "z": "980735e4.67f8c8",
      "name": "",
      "x": 509,
      "y": 824.0000038146973,
      "wires": []
    },
    {
      "id": "f22d549c.0dd2a8",
      "type": "template",
      "z": "980735e4.67f8c8",
      "name": "Log Page HTML",
      "field": "payload",
      "format": "handlebars",
      "template": "<!DOCTYPE html>\n<html lang=\"en\">\n<meta name=\"apple-mobile-web-app-capable\" content=\"yes\">\n<meta name=\"viewport\" content=\"initial-scale = 1.0, user-scalable = no\">\n<meta name=\"apple-mobile-web-app-status-bar-style\" content=\"black-translucent\">\n\n\n<head>\n\t<meta charset=\"UTF-8\">\n\t<title>Redconnect Mobile Log</title>\n\n</head>\n\n\n<body>\n    <button onclick='sendHello()'>Send 'Hello' Event</button>\n    <button onclick='sendScreen()'>Show Remote UI</button>\n    <p></p>\n        Current Connections:\n    <div class=\"connections\" id=\"connections\">\n        <p>{{#context.global.devices}}\n            <li>{{.}}</li>\n        {{/context.global.devices}}\n        </p>\n    </div>\n    <p></p>\n        Redconnect Mobile Log:\n    <div class=\"log\" id=\"log\">\n        <p>{{#context.global.events}}\n            <li>{{.}}</li>\n        {{/context.global.events}}\n        </p>\n    </div>\n\n</body>\n\n<script src=\"https://code.jquery.com/jquery-1.12.0.min.js\" type=\"text/javascript\"></script>\n\n<script>\n    var actions = {};\n    \n    actions.log = function(content) {\n        var log = document.getElementById(\"log\");\n        log.innerHTML = \"<p>\";\n        \n        for (var i=0; i < content.events.length; i++) {\n            \n            log.innerHTML += \"<li>\" + content.events[i] + \"</li>\" ;\n        };\n            \n        log.innerHTML += \"</p>\";\n        \n        var connections = document.getElementById(\"connections\");\n        \n        connections.innerHTML = \"<p>\";\n        \n        for (var i=0; i < content.connections.length; i++) {\n            \n            connections.innerHTML += \"<li>\" + content.connections[i] + \"</li>\" ;\n        };\n            \n        connections.innerHTML += \"</p>\";\n    }\n    \n    sendHello = function() {\n         $.get('/sendEvent');\n    }\n    \n    sendScreen = function() {\n         $.get('/sendScreen');\n    }\n    \n</script>\n\n<script>\n    \n    var initSocket = function() {\n        \n        document.socket = new WebSocket('{{{config.websocket}}}');\n            \n        document.socket.onclose = function (event) { \n            \n            console.log('socket closed, reopening...')\n            initSocket();\n        };\n    \n        document.socket.onmessage = function (event) {\n        \n            var msg = JSON.parse(event.data);\n            \n            //Call the requested JS action\n            if (actions && actions[msg.event]) {\n                \n                actions[msg.event](msg.details);\n                \n            } else {\n                \n                console.log('unknown event: ' + event.data);\n                \n            }\n        }\n    \n        \n    }\n    \n    initSocket();\n    \n</script>\n\n</html>",
      "x": 442.7500305175781,
      "y": 312.857129573822,
      "wires": [
        [
          "dbbc8c51.24437"
        ]
      ]
    },
    {
      "id": "a225bec4.5dda4",
      "type": "http response",
      "z": "980735e4.67f8c8",
      "name": "",
      "x": 319,
      "y": 562.0000038146973,
      "wires": []
    },
    {
      "id": "c86ae1e.f37952",
      "type": "comment",
      "z": "980735e4.67f8c8",
      "name": "Sending an event to all registered devices",
      "info": "",
      "x": 185,
      "y": 521.0000038146973,
      "wires": []
    },
    {
      "id": "3230b5ea.cdcf4a",
      "type": "comment",
      "z": "980735e4.67f8c8",
      "name": "Remote User Interface",
      "info": "",
      "x": 130,
      "y": 712.0000038146973,
      "wires": []
    },
    {
      "id": "b4129f32.4bed6",
      "type": "comment",
      "z": "980735e4.67f8c8",
      "name": "Simple Logging Page",
      "info": "",
      "x": 136.50003051757812,
      "y": 268.857129573822,
      "wires": []
    },
    {
      "id": "598ad220.a6752c",
      "type": "debug",
      "z": "980735e4.67f8c8",
      "name": "",
      "active": true,
      "console": "false",
      "complete": "true",
      "x": 551.1428375244141,
      "y": 421.42855167388916,
      "wires": []
    },
    {
      "id": "66d688ed.992978",
      "type": "comment",
      "z": "980735e4.67f8c8",
      "name": "Resets",
      "info": "",
      "x": 119.99999618530273,
      "y": 48,
      "wires": []
    },
    {
      "id": "cc96efbd.33691",
      "type": "inject",
      "z": "980735e4.67f8c8",
      "name": "Reset",
      "topic": "",
      "payload": "",
      "payloadType": "none",
      "repeat": "",
      "crontab": "",
      "once": false,
      "x": 126.99999618530273,
      "y": 91,
      "wires": [
        [
          "8bef1c2.f7410e",
          "ededcfce.12123"
        ]
      ]
    },
    {
      "id": "8bef1c2.f7410e",
      "type": "function",
      "z": "980735e4.67f8c8",
      "name": "Clear down connected devices",
      "func": "context.global.devices = [];\n\nreturn;",
      "outputs": "0",
      "noerr": 0,
      "x": 376.99999618530273,
      "y": 91,
      "wires": []
    },
    {
      "id": "ededcfce.12123",
      "type": "function",
      "z": "980735e4.67f8c8",
      "name": "Clear down events",
      "func": "context.global.events = [];\n\nreturn;",
      "outputs": "0",
      "noerr": 0,
      "x": 339.25000381469727,
      "y": 151.50000190734863,
      "wires": []
    },
    {
      "id": "c3da3de.f3c25c",
      "type": "websocket in",
      "z": "980735e4.67f8c8",
      "name": "",
      "server": "d4b6ffe2.2b49",
      "client": "",
      "x": 138,
      "y": 941,
      "wires": [
        [
          "1cd86c8f.e32793"
        ]
      ]
    },
    {
      "id": "1cd86c8f.e32793",
      "type": "debug",
      "z": "980735e4.67f8c8",
      "name": "",
      "active": true,
      "console": "false",
      "complete": "true",
      "x": 326.7143020629883,
      "y": 942.1428413391113,
      "wires": []
    },
    {
      "id": "69ab8890.965478",
      "type": "redconnect-mobile-device-event",
      "z": "980735e4.67f8c8",
      "name": "'pageAssistant' received",
      "server": "56892d57.a976d4",
      "event": "pageAssistant",
      "x": 167.14285278320312,
      "y": 477.1428527832031,
      "wires": [
        [
          "e2464b0.f1db9b8"
        ]
      ]
    },
    {
      "id": "e2464b0.f1db9b8",
      "type": "function",
      "z": "980735e4.67f8c8",
      "name": "Check msg is from consumer app",
      "func": "if ((msg.profile.device.id === 'consumer-app')) {\n     return msg;   \n} else\n{\n    return null;\n}\n",
      "outputs": 1,
      "noerr": 0,
      "x": 430.4642639160156,
      "y": 480.6785583496094,
      "wires": [
        [
          "4f1784bb.b0e87c"
        ]
      ]
    },
    {
      "id": "492145b8.b6debc",
      "type": "redconnect-mobile-send-device-action",
      "z": "980735e4.67f8c8",
      "name": "Send 'Brenda Simmons'",
      "server": "56892d57.a976d4",
      "event": "Brenda Simmons",
      "x": 1135.7143249511719,
      "y": 478.57140159606934,
      "wires": []
    },
    {
      "id": "5a7c486.fa583b8",
      "type": "subflow:1a00e57f.e5ff1b",
      "z": "980735e4.67f8c8",
      "name": "",
      "x": 906.5,
      "y": 478.89285469055176,
      "wires": [
        [
          "492145b8.b6debc"
        ]
      ]
    },
    {
      "id": "4f1784bb.b0e87c",
      "type": "function",
      "z": "980735e4.67f8c8",
      "name": "Select sales apps",
      "func": "msg.topic = 'sales';\nreturn msg;",
      "outputs": 1,
      "noerr": 0,
      "x": 694.5,
      "y": 478.89285469055176,
      "wires": [
        [
          "5a7c486.fa583b8"
        ]
      ]
    },
    {
      "id": "eaa742e5.1558c",
      "type": "inject",
      "z": "980735e4.67f8c8",
      "name": "Test message",
      "topic": "",
      "payload": "pageAssistant",
      "payloadType": "string",
      "repeat": "",
      "crontab": "",
      "once": false,
      "x": 487.1428680419922,
      "y": 534.2857313156128,
      "wires": [
        [
          "4f1784bb.b0e87c"
        ]
      ]
    }
  ]
}